wave.vcd
$version Generated by VerilatedVcd $end
$timescale 1s $end
 $scope module TOP $end
  $scope module MemWriteFirstSimEnv $end
   $var wire 1 H cmd_in_valid $end
   $var wire 9 I cmd_in_payload [8:0] $end
   $var wire 1 4 cmd_out_valid $end
   $var wire 8 # cmd_out_payload [7:0] $end
   $var wire 1 L clk $end
   $var wire 1 M reset $end
   $var wire 8 $ memInst_wdata [7:0] $end
   $var wire 1 4 memInst_rdata_valid $end
   $var wire 8 # memInst_rdata_payload [7:0] $end
   $var wire 9 ? cmd_in_payload_delay_1 [8:0] $end
   $var wire 9 @ cmd_in_payload_delay_2 [8:0] $end
   $var wire 9 A cmd_in_payload_delay_3 [8:0] $end
   $var wire 9 B cmd_in_payload_delay_4 [8:0] $end
   $var wire 9 C cmd_in_payload_delay_5 [8:0] $end
   $var wire 9 D cmd_in_payload_delay_6 [8:0] $end
   $var wire 9 E cmd_in_payload_delay_7 [8:0] $end
   $var wire 9 F waddr [8:0] $end
   $scope module memInst $end
    $var wire 1 4 wen $end
    $var wire 9 F waddr [8:0] $end
    $var wire 8 $ wdata [7:0] $end
    $var wire 1 H rcmd_valid $end
    $var wire 9 I rcmd_payload [8:0] $end
    $var wire 1 4 rdata_valid $end
    $var wire 8 # rdata_payload [7:0] $end
    $var wire 1 L clk $end
    $var wire 1 M reset $end
    $var wire 8 % mem_spinal_port1 [7:0] $end
    $var wire 1 5 rcmd_valid_delay_1 $end
    $var wire 1 6 rcmd_valid_delay_2 $end
    $var wire 1 7 rcmd_valid_delay_3 $end
    $var wire 1 8 rcmd_valid_delay_4 $end
    $var wire 1 9 rcmd_valid_delay_5 $end
    $var wire 1 : rcmd_valid_delay_6 $end
    $var wire 1 ; rcmd_valid_delay_7 $end
    $var wire 1 4 rcmd_valid_delay_8 $end
    $var wire 8 % mem_rdata [7:0] $end
    $var wire 8 & mem_rdata_dly [7:0] $end
    $var wire 9 G raddr_pipe_1 [8:0] $end
    $var wire 9 ' raddr_pipe_2 [8:0] $end
    $var wire 9 ( raddr_pipe_3 [8:0] $end
    $var wire 9 ) raddr_pipe_4 [8:0] $end
    $var wire 9 * raddr_pipe_5 [8:0] $end
    $var wire 9 + raddr_pipe_6 [8:0] $end
    $var wire 9 , raddr_pipe_7 [8:0] $end
    $var wire 1 N read_write_conflict_0 $end
    $var wire 1 O read_write_conflict_1 $end
    $var wire 1 P read_write_conflict_2 $end
    $var wire 1 Q read_write_conflict_3 $end
    $var wire 1 R read_write_conflict_4 $end
    $var wire 1 S read_write_conflict_5 $end
    $var wire 1 T read_write_conflict_6 $end
    $var wire 1 U read_write_conflict_7 $end
    $var wire 8 - rdata_sel_0 [7:0] $end
    $var wire 8 . rdata_sel_1 [7:0] $end
    $var wire 8 / rdata_sel_2 [7:0] $end
    $var wire 8 0 rdata_sel_3 [7:0] $end
    $var wire 8 1 rdata_sel_4 [7:0] $end
    $var wire 8 # rdata_sel_5 [7:0] $end
    $var wire 8 2 wdata_dly_0 [7:0] $end
    $var wire 8 3 wdata_dly_1 [7:0] $end
    $var wire 1 < read_write_conflict_0_delay_1 $end
    $var wire 1 = read_with_write_conflict $end
    $var wire 1 > write_after_read_conflict $end
    $var wire 8 V mem_rdata_sel [7:0] $end
   $upscope $end
  $upscope $end
  $var wire 1 H cmd_in_valid $end
  $var wire 9 I cmd_in_payload [8:0] $end
  $var wire 1 J cmd_out_valid $end
  $var wire 8 K cmd_out_payload [7:0] $end
  $var wire 1 L clk $end
  $var wire 1 M reset $end
 $upscope $end
$enddefinitions $end


#0
b11000011 #
b11000100 $
b11010000 %
b11010000 &
b010011101 '
b111100001 (
b100001000 )
b011010100 *
b101010100 +
b011110111 ,
b00101100 -
b00000100 .
b11111111 /
b00101110 0
b01110100 1
b10001101 2
b00011110 3
04
05
06
07
08
09
0:
0;
0<
0=
0>
b011111010 ?
b110100101 @
b000101011 A
b001111001 B
b100101001 C
b111011001 D
b111010100 E
b011101111 F
b011111010 G
0H
b011111010 I
0J
b11000011 K
0L
1M
0N
0O
0P
0Q
0R
0S
0T
0U
b11010000 V
#160
0M
#170
b01110100 #
b01110101 $
b011111010 '
b010011101 (
b111100001 )
b100001000 *
b011010100 +
b101010100 ,
b11010000 -
b00101100 .
b00000100 /
b11111111 0
b00101110 1
b11000100 2
b10001101 3
b011111010 @
b110100101 A
b000101011 B
b001111001 C
b100101001 D
b111011001 E
b111010100 F
b01110100 K
1L
#175
0L
#180
b00101110 #
b00101111 $
b011111010 (
b010011101 )
b111100001 *
b100001000 +
b011010100 ,
b11010000 .
b00101100 /
b00000100 0
b11111111 1
b01110101 2
b11000100 3
b011111010 A
b110100101 B
b000101011 C
b001111001 D
b100101001 E
b111011001 F
b00101110 K
1L
#185
0L
#190
b11111111 #
b00000000 $
b011111010 )
b010011101 *
b111100001 +
b100001000 ,
b11010000 /
b00101100 0
b00000100 1
b00101111 2
b01110101 3
b011111010 B
b110100101 C
b000101011 D
b001111001 E
b100101001 F
b11111111 K
1L
#195
0L
#200
b00000100 #
b00000101 $
b011111010 *
b010011101 +
b111100001 ,
b11010000 0
b00101100 1
b00000000 2
b00101111 3
b011111010 C
b110100101 D
b000101011 E
b001111001 F
b00000100 K
1L
#205
0L
#210
b00101100 #
b00101101 $
b011111010 +
b010011101 ,
b11010000 1
b00000101 2
b00000000 3
b011111010 D
b110100101 E
b000101011 F
b00101100 K
1L
#215
0L
#220
b11010000 #
b11010001 $
b011111010 ,
b00101101 2
b00000101 3
b011111010 E
b110100101 F
b11010000 K
1L
#225
0L
#230
b11010001 2
b00101101 3
b011111010 F
1L
#235
0L
#240
b11010001 3
1L
#245
0L
#250
1L
#255
0L
#260
1H
b000000000 I
1L
#265
0L
#270
b00000000 %
15
b000000000 ?
b000000000 G
1L
#275
0L
#280
b00000000 &
b000000000 '
16
b000000000 @
1L
b00000000 V
#285
0L
#290
b000000000 (
b00000000 -
17
b000000000 A
1L
#295
0L
#300
b000000000 )
b00000000 .
18
b000000000 B
1L
#305
0L
#310
b000000000 *
b00000000 /
19
b000000000 C
1L
#315
0L
#320
b000000000 +
b00000000 0
1:
b000000000 D
1L
#325
0L
#330
b000000000 ,
b00000000 1
1;
b000000000 E
1L
#335
0L
#340
b00000000 #
b00000001 $
14
b000000000 F
1J
b00000000 K
1L
1N
1O
1P
1Q
1R
1S
1T
1U
#345
0L
#350
b00000001 #
b00000010 $
b00000001 -
b00000001 .
b00000001 /
b00000001 0
b00000001 1
b00000001 2
1<
1>
b00000001 K
1L
b00000001 V
#355
0L
#360
b00000010 #
b00000011 $
b00000001 %
b00000010 -
b00000010 .
b00000010 /
b00000010 0
b00000010 1
b00000010 2
b00000001 3
1=
b00000010 K
1L
b00000010 V
#365
0L
#370
b00000011 #
b00000100 $
b00000010 %
b00000001 &
b00000011 -
b00000011 .
b00000011 /
b00000011 0
b00000011 1
b00000011 2
b00000010 3
b00000011 K
1L
b00000011 V
#375
0L
#380
b00000100 #
b00000101 $
b00000011 %
b00000010 &
b00000100 -
b00000100 .
b00000100 /
b00000100 0
b00000100 1
b00000100 2
b00000011 3
b00000100 K
1L
b00000100 V
#385
0L
#390
b00000101 #
b00000110 $
b00000100 %
b00000011 &
b00000101 -
b00000101 .
b00000101 /
b00000101 0
b00000101 1
b00000101 2
b00000100 3
b00000101 K
1L
b00000101 V
#395
0L
#400
b00000110 #
b00000111 $
b00000101 %
b00000100 &
b00000110 -
b00000110 .
b00000110 /
b00000110 0
b00000110 1
b00000110 2
b00000101 3
b00000110 K
1L
b00000110 V
#405
0L
#410
b00000111 #
b00001000 $
b00000110 %
b00000101 &
b00000111 -
b00000111 .
b00000111 /
b00000111 0
b00000111 1
b00000111 2
b00000110 3
b00000111 K
1L
b00000111 V
#415
0L
#420
b00001000 #
b00001001 $
b00000111 %
b00000110 &
b00001000 -
b00001000 .
b00001000 /
b00001000 0
b00001000 1
b00001000 2
b00000111 3
b00001000 K
1L
b00001000 V
#425
0L
#430
b00001001 #
b00001010 $
b00001000 %
b00000111 &
b00001001 -
b00001001 .
b00001001 /
b00001001 0
b00001001 1
b00001001 2
b00001000 3
b00001001 K
1L
b00001001 V
#435
0L
#440
b00001010 #
b00001011 $
b00001001 %
b00001000 &
b00001010 -
b00001010 .
b00001010 /
b00001010 0
b00001010 1
b00001010 2
b00001001 3
b00001010 K
1L
b00001010 V
#445
0L
#450
b00001011 #
b00001100 $
b00001010 %
b00001001 &
b00001011 -
b00001011 .
b00001011 /
b00001011 0
b00001011 1
b00001011 2
b00001010 3
b00001011 K
1L
b00001011 V
#455
0L
#460
b00001100 #
b00001101 $
b00001011 %
b00001010 &
b00001100 -
b00001100 .
b00001100 /
b00001100 0
b00001100 1
b00001100 2
b00001011 3
b00001100 K
1L
b00001100 V
#465
0L
#470
b00001101 #
b00001110 $
b00001100 %
b00001011 &
b00001101 -
b00001101 .
b00001101 /
b00001101 0
b00001101 1
b00001101 2
b00001100 3
b00001101 K
1L
b00001101 V
#475
0L
#480
b00001110 #
b00001111 $
b00001101 %
b00001100 &
b00001110 -
b00001110 .
b00001110 /
b00001110 0
b00001110 1
b00001110 2
b00001101 3
b00001110 K
1L
b00001110 V
#485
0L
#490
b00001111 #
b00010000 $
b00001110 %
b00001101 &
b00001111 -
b00001111 .
b00001111 /
b00001111 0
b00001111 1
b00001111 2
b00001110 3
b00001111 K
1L
b00001111 V
#495
0L
#500
b00010000 #
b00010001 $
b00001111 %
b00001110 &
b00010000 -
b00010000 .
b00010000 /
b00010000 0
b00010000 1
b00010000 2
b00001111 3
b00010000 K
1L
b00010000 V
#505
0L
#510
b00010001 #
b00010010 $
b00010000 %
b00001111 &
b00010001 -
b00010001 .
b00010001 /
b00010001 0
b00010001 1
b00010001 2
b00010000 3
b00010001 K
1L
b00010001 V
#515
0L
#520
b00010010 #
b00010011 $
b00010001 %
b00010000 &
b00010010 -
b00010010 .
b00010010 /
b00010010 0
b00010010 1
b00010010 2
b00010001 3
b00010010 K
1L
b00010010 V
#525
0L
#530
b00010011 #
b00010100 $
b00010010 %
b00010001 &
b00010011 -
b00010011 .
b00010011 /
b00010011 0
b00010011 1
b00010011 2
b00010010 3
b00010011 K
1L
b00010011 V
#535
0L
#540
b00010100 #
b00010101 $
b00010011 %
b00010010 &
b00010100 -
b00010100 .
b00010100 /
b00010100 0
b00010100 1
b00010100 2
b00010011 3
b00010100 K
1L
b00010100 V
#545
0L
#550
b00010101 #
b00010110 $
b00010100 %
b00010011 &
b00010101 -
b00010101 .
b00010101 /
b00010101 0
b00010101 1
b00010101 2
b00010100 3
b00010101 K
1L
b00010101 V
#555
0L
#560
b00010110 #
b00010111 $
b00010101 %
b00010100 &
b00010110 -
b00010110 .
b00010110 /
b00010110 0
b00010110 1
b00010110 2
b00010101 3
b00010110 K
1L
b00010110 V
#565
0L
#570
b00010111 #
b00011000 $
b00010110 %
b00010101 &
b00010111 -
b00010111 .
b00010111 /
b00010111 0
b00010111 1
b00010111 2
b00010110 3
b00010111 K
1L
b00010111 V
#575
0L
#580
b00011000 #
b00011001 $
b00010111 %
b00010110 &
b00011000 -
b00011000 .
b00011000 /
b00011000 0
b00011000 1
b00011000 2
b00010111 3
b00011000 K
1L
b00011000 V
#585
0L
#590
b00011001 #
b00011010 $
b00011000 %
b00010111 &
b00011001 -
b00011001 .
b00011001 /
b00011001 0
b00011001 1
b00011001 2
b00011000 3
b00011001 K
1L
b00011001 V
#595
0L
#600
b00011010 #
b00011011 $
b00011001 %
b00011000 &
b00011010 -
b00011010 .
b00011010 /
b00011010 0
b00011010 1
b00011010 2
b00011001 3
b00011010 K
1L
b00011010 V
#605
0L
#610
b00011011 #
b00011100 $
b00011010 %
b00011001 &
b00011011 -
b00011011 .
b00011011 /
b00011011 0
b00011011 1
b00011011 2
b00011010 3
b00011011 K
1L
b00011011 V
#615
0L
#620
b00011100 #
b00011101 $
b00011011 %
b00011010 &
b00011100 -
b00011100 .
b00011100 /
b00011100 0
b00011100 1
b00011100 2
b00011011 3
b00011100 K
1L
b00011100 V
#625
0L
#630
b00011101 #
b00011110 $
b00011100 %
b00011011 &
b00011101 -
b00011101 .
b00011101 /
b00011101 0
b00011101 1
b00011101 2
b00011100 3
b00011101 K
1L
b00011101 V
#635
0L
#640
b00011110 #
b00011111 $
b00011101 %
b00011100 &
b00011110 -
b00011110 .
b00011110 /
b00011110 0
b00011110 1
b00011110 2
b00011101 3
b00011110 K
1L
b00011110 V
#645
0L
#650
b00011111 #
b00100000 $
b00011110 %
b00011101 &
b00011111 -
b00011111 .
b00011111 /
b00011111 0
b00011111 1
b00011111 2
b00011110 3
b00011111 K
1L
b00011111 V
#655
0L
#660
b00100000 #
b00100001 $
b00011111 %
b00011110 &
b00100000 -
b00100000 .
b00100000 /
b00100000 0
b00100000 1
b00100000 2
b00011111 3
b00100000 K
1L
b00100000 V
#665
0L
#670
b00100001 #
b00100010 $
b00100000 %
b00011111 &
b00100001 -
b00100001 .
b00100001 /
b00100001 0
b00100001 1
b00100001 2
b00100000 3
b00100001 K
1L
b00100001 V
#675
0L
#680
b00100010 #
b00100011 $
b00100001 %
b00100000 &
b00100010 -
b00100010 .
b00100010 /
b00100010 0
b00100010 1
b00100010 2
b00100001 3
b00100010 K
1L
b00100010 V
#685
0L
#690
b00100011 #
b00100100 $
b00100010 %
b00100001 &
b00100011 -
b00100011 .
b00100011 /
b00100011 0
b00100011 1
b00100011 2
b00100010 3
b00100011 K
1L
b00100011 V
#695
0L
#700
b00100100 #
b00100101 $
b00100011 %
b00100010 &
b00100100 -
b00100100 .
b00100100 /
b00100100 0
b00100100 1
b00100100 2
b00100011 3
b00100100 K
1L
b00100100 V
#705
0L
#710
b00100101 #
b00100110 $
b00100100 %
b00100011 &
b00100101 -
b00100101 .
b00100101 /
b00100101 0
b00100101 1
b00100101 2
b00100100 3
b00100101 K
1L
b00100101 V
#715
0L
#720
b00100110 #
b00100111 $
b00100101 %
b00100100 &
b00100110 -
b00100110 .
b00100110 /
b00100110 0
b00100110 1
b00100110 2
b00100101 3
b00100110 K
1L
b00100110 V
#725
0L
#730
b00100111 #
b00101000 $
b00100110 %
b00100101 &
b00100111 -
b00100111 .
b00100111 /
b00100111 0
b00100111 1
b00100111 2
b00100110 3
b00100111 K
1L
b00100111 V
#735
0L
#740
b00101000 #
b00101001 $
b00100111 %
b00100110 &
b00101000 -
b00101000 .
b00101000 /
b00101000 0
b00101000 1
b00101000 2
b00100111 3
b00101000 K
1L
b00101000 V
#745
0L
#750
b00101001 #
b00101010 $
b00101000 %
b00100111 &
b00101001 -
b00101001 .
b00101001 /
b00101001 0
b00101001 1
b00101001 2
b00101000 3
b00101001 K
1L
b00101001 V
#755
0L
#760
b00101010 #
b00101011 $
b00101001 %
b00101000 &
b00101010 -
b00101010 .
b00101010 /
b00101010 0
b00101010 1
b00101010 2
b00101001 3
b00101010 K
1L
b00101010 V
#765
0L
#770
b00101011 #
b00101100 $
b00101010 %
b00101001 &
b00101011 -
b00101011 .
b00101011 /
b00101011 0
b00101011 1
b00101011 2
b00101010 3
b00101011 K
1L
b00101011 V
#775
0L
#780
b00101100 #
b00101101 $
b00101011 %
b00101010 &
b00101100 -
b00101100 .
b00101100 /
b00101100 0
b00101100 1
b00101100 2
b00101011 3
b00101100 K
1L
b00101100 V
#785
0L
#790
b00101101 #
b00101110 $
b00101100 %
b00101011 &
b00101101 -
b00101101 .
b00101101 /
b00101101 0
b00101101 1
b00101101 2
b00101100 3
b00101101 K
1L
b00101101 V
#795
0L
#800
b00101110 #
b00101111 $
b00101101 %
b00101100 &
b00101110 -
b00101110 .
b00101110 /
b00101110 0
b00101110 1
b00101110 2
b00101101 3
b00101110 K
1L
b00101110 V
#805
0L
#810
b00101111 #
b00110000 $
b00101110 %
b00101101 &
b00101111 -
b00101111 .
b00101111 /
b00101111 0
b00101111 1
b00101111 2
b00101110 3
b00101111 K
1L
b00101111 V
#815
0L
#820
b00110000 #
b00110001 $
b00101111 %
b00101110 &
b00110000 -
b00110000 .
b00110000 /
b00110000 0
b00110000 1
b00110000 2
b00101111 3
b00110000 K
1L
b00110000 V
#825
0L
#830
b00110001 #
b00110010 $
b00110000 %
b00101111 &
b00110001 -
b00110001 .
b00110001 /
b00110001 0
b00110001 1
b00110001 2
b00110000 3
b00110001 K
1L
b00110001 V
#835
0L
#840
b00110010 #
b00110011 $
b00110001 %
b00110000 &
b00110010 -
b00110010 .
b00110010 /
b00110010 0
b00110010 1
b00110010 2
b00110001 3
b00110010 K
1L
b00110010 V
#845
0L
#850
b00110011 #
b00110100 $
b00110010 %
b00110001 &
b00110011 -
b00110011 .
b00110011 /
b00110011 0
b00110011 1
b00110011 2
b00110010 3
b00110011 K
1L
b00110011 V
#855
0L
#860
b00110100 #
b00110101 $
b00110011 %
b00110010 &
b00110100 -
b00110100 .
b00110100 /
b00110100 0
b00110100 1
b00110100 2
b00110011 3
b00110100 K
1L
b00110100 V
#865
0L
#870
b00110101 #
b00110110 $
b00110100 %
b00110011 &
b00110101 -
b00110101 .
b00110101 /
b00110101 0
b00110101 1
b00110101 2
b00110100 3
b00110101 K
1L
b00110101 V
#875
0L
#880
b00110110 #
b00110111 $
b00110101 %
b00110100 &
b00110110 -
b00110110 .
b00110110 /
b00110110 0
b00110110 1
b00110110 2
b00110101 3
b00110110 K
1L
b00110110 V
#885
0L
#890
b00110111 #
b00111000 $
b00110110 %
b00110101 &
b00110111 -
b00110111 .
b00110111 /
b00110111 0
b00110111 1
b00110111 2
b00110110 3
b00110111 K
1L
b00110111 V
#895
0L
#900
b00111000 #
b00111001 $
b00110111 %
b00110110 &
b00111000 -
b00111000 .
b00111000 /
b00111000 0
b00111000 1
b00111000 2
b00110111 3
b00111000 K
1L
b00111000 V
#905
0L
#910
b00111001 #
b00111010 $
b00111000 %
b00110111 &
b00111001 -
b00111001 .
b00111001 /
b00111001 0
b00111001 1
b00111001 2
b00111000 3
b00111001 K
1L
b00111001 V
#915
0L
#920
b00111010 #
b00111011 $
b00111001 %
b00111000 &
b00111010 -
b00111010 .
b00111010 /
b00111010 0
b00111010 1
b00111010 2
b00111001 3
b00111010 K
1L
b00111010 V
#925
0L
#930
b00111011 #
b00111100 $
b00111010 %
b00111001 &
b00111011 -
b00111011 .
b00111011 /
b00111011 0
b00111011 1
b00111011 2
b00111010 3
b00111011 K
1L
b00111011 V
#935
0L
#940
b00111100 #
b00111101 $
b00111011 %
b00111010 &
b00111100 -
b00111100 .
b00111100 /
b00111100 0
b00111100 1
b00111100 2
b00111011 3
b00111100 K
1L
b00111100 V
#945
0L
#950
b00111101 #
b00111110 $
b00111100 %
b00111011 &
b00111101 -
b00111101 .
b00111101 /
b00111101 0
b00111101 1
b00111101 2
b00111100 3
b00111101 K
1L
b00111101 V
#955
0L
#960
b00111110 #
b00111111 $
b00111101 %
b00111100 &
b00111110 -
b00111110 .
b00111110 /
b00111110 0
b00111110 1
b00111110 2
b00111101 3
b00111110 K
1L
b00111110 V
#965
0L
#970
b00111111 #
b01000000 $
b00111110 %
b00111101 &
b00111111 -
b00111111 .
b00111111 /
b00111111 0
b00111111 1
b00111111 2
b00111110 3
b00111111 K
1L
b00111111 V
#975
0L
#980
b01000000 #
b01000001 $
b00111111 %
b00111110 &
b01000000 -
b01000000 .
b01000000 /
b01000000 0
b01000000 1
b01000000 2
b00111111 3
b01000000 K
1L
b01000000 V
#985
0L
#990
b01000001 #
b01000010 $
b01000000 %
b00111111 &
b01000001 -
b01000001 .
b01000001 /
b01000001 0
b01000001 1
b01000001 2
b01000000 3
b01000001 K
1L
b01000001 V
#995
0L
#1000
b01000010 #
b01000011 $
b01000001 %
b01000000 &
b01000010 -
b01000010 .
b01000010 /
b01000010 0
b01000010 1
b01000010 2
b01000001 3
b01000010 K
1L
b01000010 V
#1005
0L
#1010
b01000011 #
b01000100 $
b01000010 %
b01000001 &
b01000011 -
b01000011 .
b01000011 /
b01000011 0
b01000011 1
b01000011 2
b01000010 3
b01000011 K
1L
b01000011 V
#1015
0L
#1020
b01000100 #
b01000101 $
b01000011 %
b01000010 &
b01000100 -
b01000100 .
b01000100 /
b01000100 0
b01000100 1
b01000100 2
b01000011 3
b01000100 K
1L
b01000100 V
#1025
0L
#1030
b01000101 #
b01000110 $
b01000100 %
b01000011 &
b01000101 -
b01000101 .
b01000101 /
b01000101 0
b01000101 1
b01000101 2
b01000100 3
b01000101 K
1L
b01000101 V
#1035
0L
#1040
b01000110 #
b01000111 $
b01000101 %
b01000100 &
b01000110 -
b01000110 .
b01000110 /
b01000110 0
b01000110 1
b01000110 2
b01000101 3
b01000110 K
1L
b01000110 V
#1045
0L
#1050
b01000111 #
b01001000 $
b01000110 %
b01000101 &
b01000111 -
b01000111 .
b01000111 /
b01000111 0
b01000111 1
b01000111 2
b01000110 3
b01000111 K
1L
b01000111 V
#1055
0L
#1060
b01001000 #
b01001001 $
b01000111 %
b01000110 &
b01001000 -
b01001000 .
b01001000 /
b01001000 0
b01001000 1
b01001000 2
b01000111 3
b01001000 K
1L
b01001000 V
#1065
0L
#1070
b01001001 #
b01001010 $
b01001000 %
b01000111 &
b01001001 -
b01001001 .
b01001001 /
b01001001 0
b01001001 1
b01001001 2
b01001000 3
b01001001 K
1L
b01001001 V
#1075
0L
#1080
b01001010 #
b01001011 $
b01001001 %
b01001000 &
b01001010 -
b01001010 .
b01001010 /
b01001010 0
b01001010 1
b01001010 2
b01001001 3
b01001010 K
1L
b01001010 V
#1085
0L
#1090
b01001011 #
b01001100 $
b01001010 %
b01001001 &
b01001011 -
b01001011 .
b01001011 /
b01001011 0
b01001011 1
b01001011 2
b01001010 3
b01001011 K
1L
b01001011 V
#1095
0L
#1100
b01001100 #
b01001101 $
b01001011 %
b01001010 &
b01001100 -
b01001100 .
b01001100 /
b01001100 0
b01001100 1
b01001100 2
b01001011 3
b01001100 K
1L
b01001100 V
#1105
0L
#1110
b01001101 #
b01001110 $
b01001100 %
b01001011 &
b01001101 -
b01001101 .
b01001101 /
b01001101 0
b01001101 1
b01001101 2
b01001100 3
b01001101 K
1L
b01001101 V
#1115
0L
#1120
b01001110 #
b01001111 $
b01001101 %
b01001100 &
b01001110 -
b01001110 .
b01001110 /
b01001110 0
b01001110 1
b01001110 2
b01001101 3
b01001110 K
1L
b01001110 V
#1125
0L
#1130
b01001111 #
b01010000 $
b01001110 %
b01001101 &
b01001111 -
b01001111 .
b01001111 /
b01001111 0
b01001111 1
b01001111 2
b01001110 3
b01001111 K
1L
b01001111 V
#1135
0L
#1140
b01010000 #
b01010001 $
b01001111 %
b01001110 &
b01010000 -
b01010000 .
b01010000 /
b01010000 0
b01010000 1
b01010000 2
b01001111 3
b01010000 K
1L
b01010000 V
#1145
0L
#1150
b01010001 #
b01010010 $
b01010000 %
b01001111 &
b01010001 -
b01010001 .
b01010001 /
b01010001 0
b01010001 1
b01010001 2
b01010000 3
b01010001 K
1L
b01010001 V
#1155
0L
#1160
b01010010 #
b01010011 $
b01010001 %
b01010000 &
b01010010 -
b01010010 .
b01010010 /
b01010010 0
b01010010 1
b01010010 2
b01010001 3
b01010010 K
1L
b01010010 V
#1165
0L
#1170
b01010011 #
b01010100 $
b01010010 %
b01010001 &
b01010011 -
b01010011 .
b01010011 /
b01010011 0
b01010011 1
b01010011 2
b01010010 3
b01010011 K
1L
b01010011 V
#1175
0L
#1180
b01010100 #
b01010101 $
b01010011 %
b01010010 &
b01010100 -
b01010100 .
b01010100 /
b01010100 0
b01010100 1
b01010100 2
b01010011 3
b01010100 K
1L
b01010100 V
#1185
0L
#1190
b01010101 #
b01010110 $
b01010100 %
b01010011 &
b01010101 -
b01010101 .
b01010101 /
b01010101 0
b01010101 1
b01010101 2
b01010100 3
b01010101 K
1L
b01010101 V
#1195
0L
#1200
b01010110 #
b01010111 $
b01010101 %
b01010100 &
b01010110 -
b01010110 .
b01010110 /
b01010110 0
b01010110 1
b01010110 2
b01010101 3
b01010110 K
1L
b01010110 V
#1205
0L
#1210
b01010111 #
b01011000 $
b01010110 %
b01010101 &
b01010111 -
b01010111 .
b01010111 /
b01010111 0
b01010111 1
b01010111 2
b01010110 3
b01010111 K
1L
b01010111 V
#1215
0L
#1220
b01011000 #
b01011001 $
b01010111 %
b01010110 &
b01011000 -
b01011000 .
b01011000 /
b01011000 0
b01011000 1
b01011000 2
b01010111 3
b01011000 K
1L
b01011000 V
#1225
0L
#1230
b01011001 #
b01011010 $
b01011000 %
b01010111 &
b01011001 -
b01011001 .
b01011001 /
b01011001 0
b01011001 1
b01011001 2
b01011000 3
b01011001 K
1L
b01011001 V
#1235
0L
#1240
b01011010 #
b01011011 $
b01011001 %
b01011000 &
b01011010 -
b01011010 .
b01011010 /
b01011010 0
b01011010 1
b01011010 2
b01011001 3
b01011010 K
1L
b01011010 V
#1245
0L
#1250
b01011011 #
b01011100 $
b01011010 %
b01011001 &
b01011011 -
b01011011 .
b01011011 /
b01011011 0
b01011011 1
b01011011 2
b01011010 3
b01011011 K
1L
b01011011 V
#1255
0L
#1260
b01011100 #
b01011101 $
b01011011 %
b01011010 &
b01011100 -
b01011100 .
b01011100 /
b01011100 0
b01011100 1
b01011100 2
b01011011 3
b01011100 K
1L
b01011100 V
#1265
0L
#1270
b01011101 #
b01011110 $
b01011100 %
b01011011 &
b01011101 -
b01011101 .
b01011101 /
b01011101 0
b01011101 1
b01011101 2
b01011100 3
b01011101 K
1L
b01011101 V
#1275
0L
#1280
b01011110 #
b01011111 $
b01011101 %
b01011100 &
b01011110 -
b01011110 .
b01011110 /
b01011110 0
b01011110 1
b01011110 2
b01011101 3
b01011110 K
1L
b01011110 V
#1285
0L
#1290
b01011111 #
b01100000 $
b01011110 %
b01011101 &
b01011111 -
b01011111 .
b01011111 /
b01011111 0
b01011111 1
b01011111 2
b01011110 3
b01011111 K
1L
b01011111 V
#1295
0L
#1300
b01100000 #
b01100001 $
b01011111 %
b01011110 &
b01100000 -
b01100000 .
b01100000 /
b01100000 0
b01100000 1
b01100000 2
b01011111 3
b01100000 K
1L
b01100000 V
#1305
0L
#1310
b01100001 #
b01100010 $
b01100000 %
b01011111 &
b01100001 -
b01100001 .
b01100001 /
b01100001 0
b01100001 1
b01100001 2
b01100000 3
b01100001 K
1L
b01100001 V
#1315
0L
#1320
b01100010 #
b01100011 $
b01100001 %
b01100000 &
b01100010 -
b01100010 .
b01100010 /
b01100010 0
b01100010 1
b01100010 2
b01100001 3
b01100010 K
1L
b01100010 V
#1325
0L
#1330
b01100011 #
b01100100 $
b01100010 %
b01100001 &
b01100011 -
b01100011 .
b01100011 /
b01100011 0
b01100011 1
b01100011 2
b01100010 3
b01100011 K
1L
b01100011 V
#1335
0L
#1340
b01100100 #
b01100101 $
b01100011 %
b01100010 &
b01100100 -
b01100100 .
b01100100 /
b01100100 0
b01100100 1
b01100100 2
b01100011 3
b01100100 K
1L
b01100100 V
#1345
0L
#1350
b01100101 #
b01100110 $
b01100100 %
b01100011 &
b01100101 -
b01100101 .
b01100101 /
b01100101 0
b01100101 1
b01100101 2
b01100100 3
b01100101 K
1L
b01100101 V
#1355
0L
#1360
b01100110 #
b01100111 $
b01100101 %
b01100100 &
b01100110 -
b01100110 .
b01100110 /
b01100110 0
b01100110 1
b01100110 2
b01100101 3
b01100110 K
1L
b01100110 V
#1365
0L
#1370
b01100111 #
b01101000 $
b01100110 %
b01100101 &
b01100111 -
b01100111 .
b01100111 /
b01100111 0
b01100111 1
b01100111 2
b01100110 3
b01100111 K
1L
b01100111 V
#1375
0L
#1380
b01101000 #
b01101001 $
b01100111 %
b01100110 &
b01101000 -
b01101000 .
b01101000 /
b01101000 0
b01101000 1
b01101000 2
b01100111 3
b01101000 K
1L
b01101000 V
#1385
0L
#1390
b01101001 #
b01101010 $
b01101000 %
b01100111 &
b01101001 -
b01101001 .
b01101001 /
b01101001 0
b01101001 1
b01101001 2
b01101000 3
b01101001 K
1L
b01101001 V
#1395
0L
#1400
b01101010 #
b01101011 $
b01101001 %
b01101000 &
b01101010 -
b01101010 .
b01101010 /
b01101010 0
b01101010 1
b01101010 2
b01101001 3
b01101010 K
1L
b01101010 V
#1405
0L
#1410
b01101011 #
b01101100 $
b01101010 %
b01101001 &
b01101011 -
b01101011 .
b01101011 /
b01101011 0
b01101011 1
b01101011 2
b01101010 3
b01101011 K
1L
b01101011 V
#1415
0L
#1420
b01101100 #
b01101101 $
b01101011 %
b01101010 &
b01101100 -
b01101100 .
b01101100 /
b01101100 0
b01101100 1
b01101100 2
b01101011 3
b01101100 K
1L
b01101100 V
#1425
0L
#1430
b01101101 #
b01101110 $
b01101100 %
b01101011 &
b01101101 -
b01101101 .
b01101101 /
b01101101 0
b01101101 1
b01101101 2
b01101100 3
b01101101 K
1L
b01101101 V
#1435
0L
#1440
b01101110 #
b01101111 $
b01101101 %
b01101100 &
b01101110 -
b01101110 .
b01101110 /
b01101110 0
b01101110 1
b01101110 2
b01101101 3
b01101110 K
1L
b01101110 V
#1445
0L
#1450
b01101111 #
b01110000 $
b01101110 %
b01101101 &
b01101111 -
b01101111 .
b01101111 /
b01101111 0
b01101111 1
b01101111 2
b01101110 3
b01101111 K
1L
b01101111 V
#1455
0L
#1460
b01110000 #
b01110001 $
b01101111 %
b01101110 &
b01110000 -
b01110000 .
b01110000 /
b01110000 0
b01110000 1
b01110000 2
b01101111 3
b01110000 K
1L
b01110000 V
#1465
0L
#1470
b01110001 #
b01110010 $
b01110000 %
b01101111 &
b01110001 -
b01110001 .
b01110001 /
b01110001 0
b01110001 1
b01110001 2
b01110000 3
b01110001 K
1L
b01110001 V
#1475
0L
